 287
 216
 260
 291
 210
 272
 260
 294
 253
 292
 280
 262
 295
 230
 283
 255
 295
 271
 268
 225
 246
 297
 302
 282
 310
 305
 306
 262
 222
 276
 270
 280
 288
 296
 281
 300
 290
 284
 304
 291
 277
 317
 292
 215
 287
 280
 311
 283
 293
 285
 276
 301
 285
 277
 270
 275
 290
 288
 287
 282
 275
 279
 300
 293
 290
 313
 299
 300
 265
 285
 294
 262
 297
 272
 284
 291
 306
 263
 304
 288
 256
 290
 284
 307
 273
 283
 250
 244
 231
 266
 504
 284
 227
 269
 282
 292
 286
 281
 296
 287
 285
 281
 298
 289
 283
 247
 279
 276
 288
 284
 301
 309
 284
 284
 286
 303
 308
 288
 303
 306
 285
 289
 292
 295
 283
 315
 290
 247
 268
 283
 305
 279
 287
 285
 298
 279
 274
 205
 302
 296
 282
 300
 284
 281
 279
 255
 210
 279
 286
 293
 285
 288
 289
 281
 297
 314
 295
 257
 298
 211
 275
 247
 279
 303
 286
 287
 287
 275
 243
 274
 299
 291
 281
 303
 269
