24.9349 5.947535 17.46026 6.208907 27.10586
1.14561 7.832923 2.772645 19.26658 1.511423
5.691786 1.016191 1.877771 37.71382 17.99347
10.39064 0.660866 16.85962 1.408476 2.230979
3.624752 10.5225 21.55128 8.267069 14.65903
1.311618 6.302724 1.036936 6.319921 16.7402
13.67912 15.1655 8.44833 12.79153 34.60038
10.44172 3.292152 5.938759 6.009294 1.503851
0.7822161 7.315944 18.02883 0.3626708 9.568193
7.423915 10.3441 17.51032 3.510229 21.97409
