13.78719 8.826797 24.33337 10.08891 5.977261
18.44123 1.939845 20.43948 -2.772076 12.18289
14.21393 0.9005225 10.61554 11.76402 14.76137
14.99206 2.082069 3.351339 17.24603 -1.565326
7.634694 10.36507 15.2576 7.49124 7.817792
13.2498 5.108475 -3.065015 20.61805 19.6069
-8.526367 22.76396 17.63155 6.864721 11.69261
2.697316 17.02065 4.284958 2.883694 4.422278
5.545788 -1.677556 14.99234 12.34596 7.12758
8.423999 1.518413 10.3876 26.68311 6.095257
